…
``` r
rf_rasample <- rsample::vfold_cv(training,v=5)

rf_recipe <- recipes::recipe(XCO2adj~., data=training) |> 
  recipes::step_string2factor(recipes::all_nominal(),skip = TRUE) |> 
  recipes::step_normalize(recipes::all_numeric_predictors()) |> 
  recipes::step_novel(recipes::all_nominal_predictors()) |> 
  recipes::step_zv(recipes::all_predictors()) |> 
  recipes::step_dummy(recipes::all_nominal_predictors())

recipes::bake(recipes::prep(rf_recipe),new_data=NULL)
```

    ## # A tibble: 59 × 10
    ##    SIF_757    GPP    NDVI    LAI    LST    Prec   Temp      RH     Qg XCO2adj
    ##      <dbl>  <dbl>   <dbl>  <dbl>  <dbl>   <dbl>  <dbl>   <dbl>  <dbl>   <dbl>
    ##  1  0.770   1.66   1.38    2.09  -0.476 -0.373   0.729  0.163   1.09     391.
    ##  2 -0.0298 -1.22  -0.773  -0.709  1.74   1.10    1.32   0.229   0.450    392.
    ##  3  1.24    1.04   0.615   1.22  -0.109  0.440   0.396  0.987   1.19     390.
    ##  4 -0.0522  0.955  0.579   0.561 -0.280 -0.915   0.547 -0.204   0.405    391.
    ##  5 -0.381  -0.353 -1.08   -0.651  1.51  -0.0591  0.815 -0.663   0.677    390.
    ##  6  0.967   2.02   1.26    1.48  -0.520  0.748  -0.150  1.40    0.323    390.
    ##  7 -1.10    0.292  0.0779 -0.581 -1.27  -1.12   -1.25  -0.217  -1.86     392.
    ##  8 -1.08   -1.59  -1.24   -1.12   1.56  -0.377   1.08  -1.73    0.224    391.
    ##  9 -0.952   0.463 -0.161  -0.507 -1.17  -0.956  -1.61  -0.0572 -1.50     392.
    ## 10  1.30    0.259  0.718   0.711  0.544  0.787   0.767  0.649   1.11     391.
    ## # … with 49 more rows
…
